{
    "DNDConfig": null,
    "_height_": {
        "type": "string",
        "value": "75dp"
    },
    "_margin_": [
        0,
        0,
        0,
        0
    ],
    "_orientation_": 6,
    "_padding_": [
        0,
        0,
        0,
        0
    ],
    "_percent_": true,
    "_skin_": "sfdb87e2184a4046a0df29fa3eb4b0dc",
    "allboxes": [],
    "autogrowmode": 0,
    "canUpdateUI": true,
    "children": [
        "lblHeading",
        "lblDescription",
        "lblTime",
        "lblStrip"
    ],
    "clipbounds": true,
    "containerId": true,
    "containerweight": 100,
    "controllerInfo": {
        "default": {
            "channel": "desktop",
            "name": "CopyflxSampleRowTemplateController"
        }
    },
    "enablescrolling": true,
    "id": "CopyflxSampleRowTemplate",
    "info": null,
    "isTemplate": true,
    "isvisible": true,
    "kuid": "a99efae52bac4407a353c5cdfb977984",
    "layouttype": 2,
    "name": "kony.ui.FlexContainer",
    "parent": "CopySampleRowTemplate",
    "pf": "CopySampleRowTemplate",
    "snapgridsize": 10,
    "snaptogrid": true,
    "wType": "FlexContainer",
    "widgetalignment": 1
}