{
    "DNDConfig": null,
    "__parentReadjusting__": false,
    "_height_": {
        "type": "ref",
        "value": "preferred"
    },
    "_left_": {
        "type": "string",
        "value": "2%"
    },
    "_margin_": [
        0,
        0,
        0,
        0
    ],
    "_orientation_": 6,
    "_padding_": [
        0,
        0,
        0,
        0
    ],
    "_percent_": true,
    "_skin_": "s4a901d185e3414e8818fdaa1728ac11",
    "_top_": {
        "type": "string",
        "value": "0dp"
    },
    "_width_": {
        "type": "string",
        "value": "28%"
    },
    "allboxes": [],
    "autogrowmode": 1,
    "canUpdateUI": true,
    "children": [
        "CopylblReason0c75bdba3163b43",
        "CopylblReason0b38e3c87a3974f"
    ],
    "clipbounds": true,
    "containerweight": 100,
    "enablescrolling": true,
    "id": "CopyflxReasonInput0hdfb2743edf64f",
    "info": null,
    "iscustomlayout": false,
    "isvisible": true,
    "kuid": "hb6c3ea4b0a84de785a51f9fdf3e94f0",
    "layouttype": 4,
    "name": "kony.ui.FlexContainer",
    "parent": "CopyflxReason0h1f549c3190b41",
    "pf": "frmJobDetails",
    "retaincontentalignment": false,
    "retainflexpositionproperties": false,
    "retainflowhorizontalalignment": false,
    "snapgridsize": 10,
    "snaptogrid": true,
    "wType": "FlexContainer",
    "widgetalignment": 1,
    "zindex": 1
}