{
    "@class": "com.kony.gen.viz.model.component.KVizButton",
    "DNDConfig": null,
    "__parentReadjusting__": false,
    "_height_": {
        "type": "string",
        "value": "100%"
    },
    "_left_": {
        "type": "string",
        "value": "0dp"
    },
    "_margin_": [
        6,
        6,
        6,
        6
    ],
    "_padding_": [
        0,
        0,
        0,
        0
    ],
    "_skin_": "sec5e20d4a424cbe96db94b5f529ab3d",
    "_text_": "Create",
    "_top_": {
        "type": "string",
        "value": "0dp"
    },
    "_width_": {
        "type": "string",
        "value": "100%"
    },
    "canUpdateUI": true,
    "containerweight": 100,
    "contentalignment": 5,
    "displaytext": true,
    "focusskin": "sec5e20d4a424cbe96db94b5f529ab3d",
    "id": "CopyButton0h61d953721d048",
    "info": null,
    "iscustomlayout": false,
    "isvisible": true,
    "kuid": "e304b76f643742e4bf66d7b08f0e2688",
    "name": "kony.ui.Button",
    "parent": "CopyFlexGroup0i03b66fbc35e43",
    "pf": "frmJobDetails",
    "retaincontentalignment": false,
    "retainflexpositionproperties": false,
    "wType": "Button",
    "zindex": 1
}