{
    "@class": "com.kony.gen.viz.model.component.KVizSwitch",
    "DNDConfig": null,
    "__parentReadjusting__": false,
    "_height_": {
        "type": "ref",
        "value": "preferred"
    },
    "_margin_": [
        0,
        0,
        0,
        0
    ],
    "_padding_": [
        0,
        0,
        0,
        0
    ],
    "_right_": {
        "type": "string",
        "value": "0dp"
    },
    "_skin_": "sf89d25d9e6346d9a380591652e3fbcf",
    "_width_": {
        "type": "string",
        "value": "100dp"
    },
    "canUpdateUI": true,
    "centery": {
        "type": "string",
        "value": "50%"
    },
    "containerweight": 100,
    "id": "Switch0ffb5d3051cbd4c",
    "info": null,
    "iscustomlayout": false,
    "isvisible": true,
    "kiosk": {
        "render": false
    },
    "kuid": "g6d47e2fdf0046ae89d13ed3825ce9aa",
    "leftsidetext": "ON",
    "name": "kony.ui.Switch",
    "onslide": null,
    "osPlatform": "ipad",
    "osVersion": "iOS7",
    "parent": "FlexContainer0b53995cc14f64f",
    "pf": "frmJobDetails",
    "retaincontentalignment": false,
    "retainflexpositionproperties": false,
    "rightsidetext": "OFF",
    "selectedindex": 1,
    "wType": "Switch",
    "widgetalignment": 5,
    "zindex": 1
}