{
    "DNDConfig": null,
    "__parentReadjusting__": false,
    "_bottom_": {
        "type": "string",
        "value": "2%"
    },
    "_height_": {
        "type": "string",
        "value": "5.50%"
    },
    "_margin_": [
        0,
        0,
        0,
        0
    ],
    "_orientation_": 6,
    "_padding_": [
        0,
        0,
        0,
        0
    ],
    "_percent_": true,
    "_skin_": "s1b1e8c452864e99907e9216747b7b60",
    "_width_": {
        "type": "string",
        "value": "40%"
    },
    "allboxes": [],
    "autogrowmode": 0,
    "canUpdateUI": true,
    "centerx": {
        "type": "string",
        "value": "50%"
    },
    "children": [
        "flexAllocate1",
        "flexAllocateLine",
        "flexAllocate2"
    ],
    "clipbounds": true,
    "containerweight": 100,
    "enablescrolling": true,
    "id": "flexAllocate",
    "info": null,
    "iscustomlayout": false,
    "isvisible": true,
    "kuid": "d205aceb602f49e7955b328d2b8fc82f",
    "layouttype": 3,
    "name": "kony.ui.FlexContainer",
    "parent": "frmUnallocatedCalls",
    "pf": "frmUnallocatedCalls",
    "retaincontentalignment": false,
    "retainflexpositionproperties": false,
    "retainflowhorizontalalignment": false,
    "snapgridsize": 10,
    "snaptogrid": true,
    "wType": "FlexContainer",
    "widgetalignment": 1,
    "zindex": 2
}