{
    "@class": "com.kony.gen.viz.model.container.KVizSegment2",
    "DNDConfig": null,
    "__parentReadjusting__": false,
    "_data_": [
        {
            "imgCheckBox": {
                "@class": "com.viz.ide.model.segment.ImageSegmentData",
                "src": "checkbox_unchecked.png"
            },
            "imgIconSeg": {
                "@class": "com.viz.ide.model.segment.ImageSegmentData",
                "src": "calendar.png"
            },
            "lblDateTime": {
                "@class": "com.viz.ide.model.segment.SimpleTextSegmentData",
                "text": "18/06/2020 at 15:15"
            },
            "lblLocation": {
                "@class": "com.viz.ide.model.segment.SimpleTextSegmentData",
                "text": "Great Yarmouth"
            },
            "lblOrderDescription": {
                "@class": "com.viz.ide.model.segment.SimpleTextSegmentData",
                "text": "Order description here"
            },
            "lblOrderId": {
                "@class": "com.viz.ide.model.segment.SimpleTextSegmentData",
                "text": "2200002233"
            },
            "lblOrderTitle": {
                "@class": "com.viz.ide.model.segment.SimpleTextSegmentData",
                "text": "Amec Ltd1 - Gas Leak:"
            },
            "lblPostCode": {
                "@class": "com.viz.ide.model.segment.SimpleTextSegmentData",
                "text": "NR31 ONG"
            },
            "lblPriority": {
                "@class": "com.viz.ide.model.segment.SimpleTextSegmentData",
                "text": "Very High Priority"
            }
        },
        {
            "imgCheckBox": {
                "@class": "com.viz.ide.model.segment.ImageSegmentData",
                "src": "checkbox.png"
            },
            "imgIconSeg": {
                "@class": "com.viz.ide.model.segment.ImageSegmentData",
                "src": "calendar.png"
            },
            "lblDateTime": {
                "@class": "com.viz.ide.model.segment.SimpleTextSegmentData",
                "text": "18/06/2020 at 15:15"
            },
            "lblLocation": {
                "@class": "com.viz.ide.model.segment.SimpleTextSegmentData",
                "text": "Great Yarmouth"
            },
            "lblOrderDescription": {
                "@class": "com.viz.ide.model.segment.SimpleTextSegmentData",
                "text": "Order description here"
            },
            "lblOrderId": {
                "@class": "com.viz.ide.model.segment.SimpleTextSegmentData",
                "text": "2200002233"
            },
            "lblOrderTitle": {
                "@class": "com.viz.ide.model.segment.SimpleTextSegmentData",
                "text": "Amec Ltd1 - Gas Leak:"
            },
            "lblPostCode": {
                "@class": "com.viz.ide.model.segment.SimpleTextSegmentData",
                "text": "NR31 ONG"
            },
            "lblPriority": {
                "@class": "com.viz.ide.model.segment.SimpleTextSegmentData",
                "text": "Very High Priority"
            }
        },
        {
            "imgCheckBox": {
                "@class": "com.viz.ide.model.segment.ImageSegmentData",
                "src": "checkbox_unchecked.png"
            },
            "imgIconSeg": {
                "@class": "com.viz.ide.model.segment.ImageSegmentData",
                "src": "calendar.png"
            },
            "lblDateTime": {
                "@class": "com.viz.ide.model.segment.SimpleTextSegmentData",
                "text": "18/06/2020 at 15:15"
            },
            "lblLocation": {
                "@class": "com.viz.ide.model.segment.SimpleTextSegmentData",
                "text": "Great Yarmouth"
            },
            "lblOrderDescription": {
                "@class": "com.viz.ide.model.segment.SimpleTextSegmentData",
                "text": "Order description here"
            },
            "lblOrderId": {
                "@class": "com.viz.ide.model.segment.SimpleTextSegmentData",
                "text": "2200002233"
            },
            "lblOrderTitle": {
                "@class": "com.viz.ide.model.segment.SimpleTextSegmentData",
                "text": "Amec Ltd1 - Gas Leak:"
            },
            "lblPostCode": {
                "@class": "com.viz.ide.model.segment.SimpleTextSegmentData",
                "text": "NR31 ONG"
            },
            "lblPriority": {
                "@class": "com.viz.ide.model.segment.SimpleTextSegmentData",
                "text": "Very High Priority"
            }
        },
        {
            "imgCheckBox": {
                "@class": "com.viz.ide.model.segment.ImageSegmentData",
                "src": "checkbox.png"
            },
            "imgIconSeg": {
                "@class": "com.viz.ide.model.segment.ImageSegmentData",
                "src": "calendar.png"
            },
            "lblDateTime": {
                "@class": "com.viz.ide.model.segment.SimpleTextSegmentData",
                "text": "18/06/2020 at 15:15"
            },
            "lblLocation": {
                "@class": "com.viz.ide.model.segment.SimpleTextSegmentData",
                "text": "Great Yarmouth"
            },
            "lblOrderDescription": {
                "@class": "com.viz.ide.model.segment.SimpleTextSegmentData",
                "text": "Order description here"
            },
            "lblOrderId": {
                "@class": "com.viz.ide.model.segment.SimpleTextSegmentData",
                "text": "2200002233"
            },
            "lblOrderTitle": {
                "@class": "com.viz.ide.model.segment.SimpleTextSegmentData",
                "text": "Amec Ltd1 - Gas Leak:"
            },
            "lblPostCode": {
                "@class": "com.viz.ide.model.segment.SimpleTextSegmentData",
                "text": "NR31 ONG"
            },
            "lblPriority": {
                "@class": "com.viz.ide.model.segment.SimpleTextSegmentData",
                "text": "Very High Priority"
            }
        },
        {
            "imgCheckBox": {
                "@class": "com.viz.ide.model.segment.ImageSegmentData",
                "src": "checkbox_unchecked.png"
            },
            "imgIconSeg": {
                "@class": "com.viz.ide.model.segment.ImageSegmentData",
                "src": "calendar.png"
            },
            "lblDateTime": {
                "@class": "com.viz.ide.model.segment.SimpleTextSegmentData",
                "text": "18/06/2020 at 15:15"
            },
            "lblLocation": {
                "@class": "com.viz.ide.model.segment.SimpleTextSegmentData",
                "text": "Great Yarmouth"
            },
            "lblOrderDescription": {
                "@class": "com.viz.ide.model.segment.SimpleTextSegmentData",
                "text": "Order description here"
            },
            "lblOrderId": {
                "@class": "com.viz.ide.model.segment.SimpleTextSegmentData",
                "text": "2200002233"
            },
            "lblOrderTitle": {
                "@class": "com.viz.ide.model.segment.SimpleTextSegmentData",
                "text": "Amec Ltd1 - Gas Leak:"
            },
            "lblPostCode": {
                "@class": "com.viz.ide.model.segment.SimpleTextSegmentData",
                "text": "NR31 ONG"
            },
            "lblPriority": {
                "@class": "com.viz.ide.model.segment.SimpleTextSegmentData",
                "text": "Very High Priority"
            }
        },
        {
            "imgCheckBox": {
                "@class": "com.viz.ide.model.segment.ImageSegmentData",
                "src": "checkbox.png"
            },
            "imgIconSeg": {
                "@class": "com.viz.ide.model.segment.ImageSegmentData",
                "src": "calendar.png"
            },
            "lblDateTime": {
                "@class": "com.viz.ide.model.segment.SimpleTextSegmentData",
                "text": "18/06/2020 at 15:15"
            },
            "lblLocation": {
                "@class": "com.viz.ide.model.segment.SimpleTextSegmentData",
                "text": "Great Yarmouth"
            },
            "lblOrderDescription": {
                "@class": "com.viz.ide.model.segment.SimpleTextSegmentData",
                "text": "Order description here"
            },
            "lblOrderId": {
                "@class": "com.viz.ide.model.segment.SimpleTextSegmentData",
                "text": "2200002233"
            },
            "lblOrderTitle": {
                "@class": "com.viz.ide.model.segment.SimpleTextSegmentData",
                "text": "Amec Ltd1 - Gas Leak:"
            },
            "lblPostCode": {
                "@class": "com.viz.ide.model.segment.SimpleTextSegmentData",
                "text": "NR31 ONG"
            },
            "lblPriority": {
                "@class": "com.viz.ide.model.segment.SimpleTextSegmentData",
                "text": "Very High Priority"
            }
        }
    ],
    "_height_": {
        "type": "string",
        "value": "100%"
    },
    "_indicator_": "none",
    "_left_": {
        "type": "string",
        "value": "273dp"
    },
    "_margin_": [
        0,
        0,
        0,
        0
    ],
    "_orientation_": 2,
    "_padding_": [
        0,
        0,
        0,
        0
    ],
    "_top_": {
        "type": "string",
        "value": "0dp"
    },
    "_width_": {
        "type": "string",
        "value": "92%"
    },
    "autogrowmode": 0,
    "canUpdateUI": true,
    "centerx": {
        "type": "string",
        "value": "50%"
    },
    "containerweight": 100,
    "counter": "05",
    "focusedindex": null,
    "focuseditem": null,
    "generatedtemplate": "eb2e40f4a89d4e45aa9ba79bdc18f2c5",
    "groupcells": false,
    "hasSections": false,
    "id": "segCalls",
    "info": null,
    "ipad": {
        "psp": {
            "indicator": "none"
        }
    },
    "iphone": {
        "psp": {
            "indicator": "rowselect"
        }
    },
    "iscustomlayout": false,
    "isvisible": true,
    "kuid": "i4b62c66b78047b69a5edfde0ab63460",
    "masterdata": {},
    "name": "kony.ui.SegmentedUI2",
    "needpageindicator": true,
    "pageoffdotimage": "pageoffdot.png",
    "pageondotimage": "pageondot.png",
    "paginationconfig": {
        "position": "bottom"
    },
    "parent": "flexSegment",
    "pf": "frmUnallocatedCalls",
    "retaincontentalignment": false,
    "retainflexpositionproperties": false,
    "retainselection": false,
    "rowTemplateId": "eb2e40f4a89d4e45aa9ba79bdc18f2c5",
    "rowcounter": 5,
    "rowfocusskin": "s11a51dbf8464af288fe05afeda2273a",
    "rowskin": "s4b797a889de4d23bb8c4bd4c7d2cce4",
    "rowtemplate": "FBox0jbd7e57111e149",
    "screenlevelwidget": false,
    "seccounter": 0,
    "sectionheaderskin": "sc5d18a4be754715ba173294f5efd97f",
    "selectedRows": null,
    "selectedState": false,
    "selectedindex": null,
    "selectedindices": null,
    "selecteditems": null,
    "selectedsectionindex": 0,
    "selectionbehavior": "default",
    "separatorcolor": "aaaaaa00",
    "separatorrequired": true,
    "separatorthickness": 1,
    "showscrollbars": false,
    "viewtype": "tableview",
    "vizProps": {},
    "wType": "Segment",
    "widgetalignment": 5,
    "widgetdatamap": {
        "flexColumn21Line2": "flexColumn21Line2",
        "flexDateTime": "flexDateTime",
        "flexOrderId": "flexOrderId",
        "flexSegColumn1": "flexSegColumn1",
        "flexSegColumn2": "flexSegColumn2",
        "flexSegColumn21Line1": "flexSegColumn21Line1",
        "flexSegColumn3": "flexSegColumn3",
        "flexSegContent": "flexSegContent",
        "flexSegMain": "flexSegMain",
        "flexSegOrderDescription": "flexSegOrderDescription",
        "flexSegVertical": "flexSegVertical",
        "imgCheckBox": "imgCheckBox",
        "imgIconSeg": "imgIconSeg",
        "lblDateTime": "lblDateTime",
        "lblLocation": "lblLocation",
        "lblOrderDescription": "lblOrderDescription",
        "lblOrderId": "lblOrderId",
        "lblOrderTitle": "lblOrderTitle",
        "lblPostCode": "lblPostCode",
        "lblPriority": "lblPriority"
    },
    "zindex": 1
}