{
    "@class": "com.kony.gen.viz.model.component.KVizSwitch",
    "DNDConfig": null,
    "__parentReadjusting__": false,
    "_blur_": {
        "enabled": false,
        "value": 0
    },
    "_height_": {
        "type": "string",
        "value": "32dp"
    },
    "_margin_": [
        0,
        0,
        0,
        0
    ],
    "_padding_": [
        0,
        0,
        0,
        0
    ],
    "_right_": {
        "type": "number",
        "value": "0"
    },
    "_skin_": "sa25f295be1a48109db3ac2afcda61d5",
    "_top_": {
        "type": "string",
        "value": "18%"
    },
    "_width_": {
        "type": "string",
        "value": "60dp"
    },
    "canUpdateUI": true,
    "containerweight": 100,
    "id": "switchMap",
    "info": null,
    "ipad": {
        "psp": {
            "nativeThumbLook": true
        }
    },
    "iscustomlayout": false,
    "isvisible": true,
    "kiosk": {
        "render": false
    },
    "kuid": "c4be5e9ed9244d779e81966773ff0247",
    "leftsidetext": "ON",
    "name": "kony.ui.Switch",
    "nativeThumbLook": true,
    "osPlatform": "ipad",
    "osVersion": "iOS7",
    "parent": "flexMapviewRadio",
    "pf": "frmGroupCalls",
    "retaincontentalignment": false,
    "retainflexpositionproperties": false,
    "rightsidetext": "OFF",
    "selectedindex": 1,
    "wType": "Switch",
    "widgetalignment": 5,
    "zindex": 1
}