{
    "android": {
        "font_name": "default",
        "font_size": 128,
        "isForked": true,
        "text_shadow": {
            "br": 4,
            "color": "0000007f",
            "nm": 0,
            "x": 0,
            "y": 1
        }
    },
    "androidwearos": {
        "font_name": "default",
        "font_size": 128,
        "isForked": true,
        "text_shadow": {
            "br": 4,
            "color": "0000007f",
            "nm": 0,
            "x": 0,
            "y": 1
        }
    },
    "background_color": "ffffffff",
    "bg_type": "one",
    "border_color": "0a2d4bff",
    "border_radius": 50,
    "border_style": "custom",
    "border_type": 0,
    "border_width": 2,
    "desktopweb": {
        "bottom_left_border_color": "ffffffff",
        "bottom_left_border_style": "plain",
        "bottom_left_border_width": 0,
        "bottom_right_border_color": "ffffffff",
        "bottom_right_border_style": "plain",
        "bottom_right_border_width": 0,
        "font_name": "Helvetica",
        "font_size": 128,
        "isForked": true,
        "text_shadow": {
            "br": 4,
            "color": "0000007f",
            "nm": 0,
            "x": 0,
            "y": 1
        },
        "top_left_border_color": "ffffffff",
        "top_left_border_style": "plain",
        "top_left_border_width": 0,
        "top_right_border_color": "ffffffff",
        "top_right_border_style": "plain",
        "top_right_border_width": 0
    },
    "fontSizeInPx": false,
    "font_color": "0a2d4bff",
    "font_name": "iphoneSystem",
    "font_size": 128,
    "font_style": "normal",
    "font_weight": "400",
    "ipad": {
        "font_name": "LAVAZZAtxtbook"
    },
    "iphone": {
        "font_name": "System",
        "font_size": 128,
        "isForked": true,
        "text_shadow": {
            "br": 4,
            "color": "0000007f",
            "nm": 0,
            "x": 0,
            "y": 1
        }
    },
    "isDefaultSkin": false,
    "kiosk": {
        "font_name": "None",
        "font_size": 128,
        "isForked": false
    },
    "kuid": "sec5e20d4a424cbe96db94b5f529ab3d",
    "spaan": {
        "bottom_left_border_color": "ffffffff",
        "bottom_left_border_style": "plain",
        "bottom_left_border_width": 0,
        "bottom_right_border_color": "ffffffff",
        "bottom_right_border_style": "plain",
        "bottom_right_border_width": 0,
        "font_name": "Helvetica",
        "font_size": 128,
        "isForked": true,
        "text_shadow": {
            "br": 4,
            "color": "0000007f",
            "nm": 0,
            "x": 0,
            "y": 1
        },
        "top_left_border_color": "ffffffff",
        "top_left_border_style": "plain",
        "top_left_border_width": 0,
        "top_right_border_color": "ffffffff",
        "top_right_border_style": "plain",
        "top_right_border_width": 0
    },
    "spaandroidtablet": {
        "font_name": "Helvetica"
    },
    "spaip": {
        "bottom_left_border_color": "ffffffff",
        "bottom_left_border_style": "plain",
        "bottom_left_border_width": 0,
        "bottom_right_border_color": "ffffffff",
        "bottom_right_border_style": "plain",
        "bottom_right_border_width": 0,
        "font_name": "Helvetica",
        "font_size": 128,
        "isForked": true,
        "text_shadow": {
            "br": 4,
            "color": "0000007f",
            "nm": 0,
            "x": 0,
            "y": 1
        },
        "top_left_border_color": "ffffffff",
        "top_left_border_style": "plain",
        "top_left_border_width": 0,
        "top_right_border_color": "ffffffff",
        "top_right_border_style": "plain",
        "top_right_border_width": 0
    },
    "spaipad": {
        "font_name": "Helvetica"
    },
    "spawindowstablet": {
        "font_name": "Helvetica"
    },
    "spawinphone8": {
        "bottom_left_border_color": "ffffffff",
        "bottom_left_border_style": "plain",
        "bottom_left_border_width": 0,
        "bottom_right_border_color": "ffffffff",
        "bottom_right_border_style": "plain",
        "bottom_right_border_width": 0,
        "font_name": "Helvetica",
        "font_size": 128,
        "isForked": true,
        "text_shadow": {
            "br": 4,
            "color": "0000007f",
            "nm": 0,
            "x": 0,
            "y": 1
        },
        "top_left_border_color": "ffffffff",
        "top_left_border_style": "plain",
        "top_left_border_width": 0,
        "top_right_border_color": "ffffffff",
        "top_right_border_style": "plain",
        "top_right_border_width": 0
    },
    "tabrcandroid": {
        "font_name": "LAVAZZAtxtbook"
    },
    "wType": "Button",
    "watchos": {
        "font_name": "System",
        "font_size": 128,
        "isForked": false
    },
    "windows8": {
        "font_name": "None",
        "font_size": 128,
        "isForked": false
    },
    "winphone8": {
        "font_name": "None",
        "font_size": 128,
        "isForked": false
    }
}