{
    "background_color": "efededff",
    "bg_type": "one",
    "border_color": "ffffffff",
    "desktopweb": {
        "bottom_left_border_color": "ffffffff",
        "bottom_left_border_style": "plain",
        "bottom_right_border_color": "ffffffff",
        "bottom_right_border_style": "plain",
        "isForked": true,
        "shadow": {
            "br": 0,
            "color": "000000",
            "inner": true,
            "nm": 0,
            "x": 0,
            "y": 3
        },
        "top_left_border_color": "ffffffff",
        "top_left_border_style": "plain",
        "top_right_border_color": "ffffffff",
        "top_right_border_style": "plain"
    },
    "iphone": {
        "isForked": true,
        "shadow": {
            "br": 0,
            "color": "000000",
            "inner": true,
            "nm": 0,
            "x": 0,
            "y": 3
        }
    },
    "isDefaultSkin": false,
    "kuid": "s32eb105748b42b28c70fc0f95399ee8",
    "spaan": {
        "bottom_left_border_color": "ffffffff",
        "bottom_left_border_style": "plain",
        "bottom_right_border_color": "ffffffff",
        "bottom_right_border_style": "plain",
        "isForked": true,
        "shadow": {
            "br": 0,
            "color": "000000",
            "inner": true,
            "nm": 0,
            "x": 0,
            "y": 3
        },
        "top_left_border_color": "ffffffff",
        "top_left_border_style": "plain",
        "top_right_border_color": "ffffffff",
        "top_right_border_style": "plain"
    },
    "spaip": {
        "bottom_left_border_color": "ffffffff",
        "bottom_left_border_style": "plain",
        "bottom_right_border_color": "ffffffff",
        "bottom_right_border_style": "plain",
        "isForked": true,
        "shadow": {
            "br": 0,
            "color": "000000",
            "inner": true,
            "nm": 0,
            "x": 0,
            "y": 3
        },
        "top_left_border_color": "ffffffff",
        "top_left_border_style": "plain",
        "top_right_border_color": "ffffffff",
        "top_right_border_style": "plain"
    },
    "spawinphone8": {
        "bottom_left_border_color": "ffffffff",
        "bottom_left_border_style": "plain",
        "bottom_right_border_color": "ffffffff",
        "bottom_right_border_style": "plain",
        "isForked": true,
        "shadow": {
            "br": 0,
            "color": "000000",
            "inner": true,
            "nm": 0,
            "x": 0,
            "y": 3
        },
        "top_left_border_color": "ffffffff",
        "top_left_border_style": "plain",
        "top_right_border_color": "ffffffff",
        "top_right_border_style": "plain"
    },
    "wType": "Form"
}