{
    "android": {
        "font_name": "default",
        "font_size": 114,
        "isForked": false
    },
    "androidwearos": {
        "font_name": "default",
        "font_size": 114,
        "isForked": false
    },
    "background_color": "00000000",
    "bg_type": "one",
    "border_color": "424242ff",
    "border_style": "plain",
    "border_type": 0,
    "border_width": 0,
    "desktopweb": {
        "font_name": "Helvetica",
        "font_size": 114,
        "isForked": false
    },
    "fontSizeInPx": false,
    "font_color": "1d2328ff",
    "font_name": "iphoneSystem",
    "font_size": 114,
    "font_style": "normal",
    "font_weight": "400",
    "ipad": {
        "font_name": "LAVAZZAtxt-Bold",
        "font_size": 114,
        "isForked": false
    },
    "iphone": {
        "font_name": "System",
        "font_size": 114,
        "isForked": false
    },
    "isDefaultSkin": false,
    "kiosk": {
        "font_name": "None",
        "font_size": 114,
        "isForked": false
    },
    "kuid": "s6bf09d2b4cc4cafb3ab09f1daefc8ab",
    "spaan": {
        "font_name": "Helvetica",
        "font_size": 114,
        "isForked": false
    },
    "spaandroidtablet": {
        "font_name": "Helvetica",
        "font_size": 114,
        "isForked": false
    },
    "spaip": {
        "font_name": "Helvetica",
        "font_size": 114,
        "isForked": false
    },
    "spaipad": {
        "font_name": "Helvetica",
        "font_size": 114,
        "isForked": false
    },
    "spawindowstablet": {
        "font_name": "Helvetica",
        "font_size": 114,
        "isForked": false
    },
    "spawinphone8": {
        "font_name": "Helvetica",
        "font_size": 114,
        "isForked": false
    },
    "tabrcandroid": {
        "font_name": "LAVAZZAtxt-Bold",
        "font_size": 114,
        "isForked": false
    },
    "wType": "Label",
    "watchos": {
        "font_name": "System",
        "font_size": 114,
        "isForked": false
    },
    "windows8": {
        "font_name": "None",
        "font_size": 114,
        "isForked": false
    },
    "winphone8": {
        "font_name": "None",
        "font_size": 114,
        "isForked": false
    }
}